[
{
  "rank": 1,
  "coordinates": [
    19.330556,
    51.266389
  ],
  "facility": "Bełchatów",
  "total_emissions": 37600,
  "primary_fuel": "coal",
  "age": 27,
  "capacity": 5298,
  "relative_intensity": 1.756
},
{
  "rank": 2,
  "coordinates": [
    82.673611,
    24.097222
  ],
  "facility": "Vindhyachal",
  "total_emissions": 33878,
  "primary_fuel": "coal",
  "age": 14,
  "capacity": 4760,
  "relative_intensity": 1.485
},
{
  "rank": 3,
  "coordinates": [
    126.511302,
    37.055109
  ],
  "facility": "Dangjin",
  "total_emissions": 33500,
  "primary_fuel": "coal",
  "age": 10,
  "capacity": 6115,
  "relative_intensity": 1.473
},
{
  "rank": 4,
  "coordinates": [
    126.23626,
    36.9056
  ],
  "facility": "Taean",
  "total_emissions": 31400,
  "primary_fuel": "coal",
  "age": 12,
  "capacity": 6100,
  "relative_intensity": 1.481
},
{
  "rank": 5,
  "coordinates": [
    120.481111,
    24.212778
  ],
  "facility": "Taichung",
  "total_emissions": 29900,
  "primary_fuel": "coal",
  "age": 22,
  "capacity": 5834,
  "relative_intensity": 1.282
},
{
  "rank": 6,
  "coordinates": [
    111.364444,
    40.196944
  ],
  "facility": "Tuoketuo",
  "total_emissions": 29460,
  "primary_fuel": "coal",
  "age": 10,
  "capacity": 6720,
  "relative_intensity": 1.45
},
{
  "rank": 7,
  "coordinates": [
    6.669167,
    50.995556
  ],
  "facility": "Niederaussem",
  "total_emissions": 27200,
  "primary_fuel": "coal",
  "age": 38,
  "capacity": 3826,
  "relative_intensity": 1.451
},
    {
  "rank": 8,
  "coordinates": [
    82.625,
    23.965556
  ],
  "facility": "Sasan Umpp",
  "total_emissions": 27199,
  "primary_fuel": "coal",
  "age": 3,
  "capacity": 3960,
  "relative_intensity": 1.401
    },
{
  "rank": 9,
  "coordinates": [
    126.4386,
    37.241
  ],
  "facility": "Yonghungdo",
  "total_emissions": 27000,
  "primary_fuel": "coal",
  "age": 9,
  "capacity": 5080,
  "relative_intensity": 1.481
},
{
  "rank": 10,
  "coordinates": [
    136.962194,
    34.835278
  ],
  "facility": "Hekinan",
  "total_emissions": 26640,
  "primary_fuel": "coal",
  "age": 21,
  "capacity": 4100,
  "relative_intensity": 1.394
}
]
